…
# attach our (simplified) state features to our summaries 
dat_sf <- dat_state %>%
  left_join(us_lcc) %>%
  st_as_sf() %>%
  mutate(txt = paste(name, year, "\n", outcome, scales::percent(value / 100)))
  
select(dat_sf, name, year, outcome, value, geometry)

Simple feature collection with 1683 features and 4 fields
geometry type:  GEOMETRY
dimension:      XY
bbox:           xmin: -2553435 ymin: -1777696 xmax: 2258071 ymax: 1407299
epsg (SRID):    NA
proj4string:    +proj=lcc +lat_1=33 +lat_2=45 +lat_0=39 +lon_0=-96 +x_0=0 +y_0=0 +ellps=GRS80 +towgs84=0,0,0,0,0,0,0 +units=m +no_defs
# A tibble: 1,683 x 5
# Groups:   name, year [561]
   name    year  outcome       value                       geometry
   <chr>   <chr> <chr>         <dbl>              <sf_geometry [m]>
 1 Alabama 2001  Any PA         66.0 MULTIPOLYGON (((761196.5 -9...
 2 Alabama 2001  Obesity        34.5 MULTIPOLYGON (((761196.5 -9...
 3 Alabama 2001  Sufficient PA  42.7 MULTIPOLYGON (((761196.5 -9...
 4 Alabama 2002  Any PA         66.8 MULTIPOLYGON (((761196.5 -9...
 5 Alabama 2002  Obesity        35.4 MULTIPOLYGON (((761196.5 -9...
 6 Alabama 2002  Sufficient PA NaN   MULTIPOLYGON (((761196.5 -9...
 7 Alabama 2003  Any PA         67.5 MULTIPOLYGON (((761196.5 -9...
 8 Alabama 2003  Obesity        36.2 MULTIPOLYGON (((761196.5 -9...
 9 Alabama 2003  Sufficient PA  44.6 MULTIPOLYGON (((761196.5 -9...
10 Alabama 2004  Any PA         67.7 MULTIPOLYGON (((761196.5 -9...
# ... with 1,673 more rows
…
